P8104 Homework 3
…
library(p8105.datasets)
data("instacart")

library(p8105.datasets)
data("brfss_smart2010")

Problem 1

instacart |> 
  count(aisle) |> 
  arrange(desc(n))

## # A tibble: 134 x 2
##    aisle                              n
##    <chr>                          <int>
##  1 fresh vegetables              150609
##  2 fresh fruits                  150473
##  3 packaged vegetables fruits     78493
##  4 yogurt                         55240
##  5 packaged cheese                41699
##  6 water seltzer sparkling water  36617
##  7 milk                           32644
##  8 chips pretzels                 31269
##  9 soy lactosefree                26240
## 10 bread                          23635
## # i 124 more rows
…
